[{
	"name": "Allison Hardy",
	"email": "allisonhardy@hotmail.com"
}, {
	"name": "Brian Becker",
	"email": "brian.becker@intel.com"
}, {
	"name": "Carlton Kopfer",
	"email": "carltonkopfer@yahoo.com",
	"phone": "512-423-1741"
}, {
	"name": "Guillermo Leandro",
	"email": "gleandroo@gmail.com"
}, {
	"name": "Jacob Forbes",
	"email": [
		"jacob.forbes@gmail.com",
		"kannforbes@yahoo.com"
	],
	"phone": [
		"5126219004",
		"5122969433"
	]
}, {
	"name": "James Welker",
	"email": "awelker01@yahoo.com"
}, {
	"name": "Jared Damman",
	"email": "jareddamman@gmail.com",
	"phone": "5129835120"
}, {
	"name": "Jason Kim",
	"email": "jkimttv@gmail.com"
}, {
	"name": "John Watzke",
	"email": "watzkej@gmail.com",
	"phone": "5042318667"
}, {
	"name": "Steve Damman",
	"email": "steve@quantumdigital.com",
	"phone": "512-296-5765"
}, {
	"name": "Thomas Clayton",
	"email": "thomas.g.clayton@gmail.com",
	"phone": "5129179720"
}, {
	"name": "Tommy Morgan",
	"email": "tommy@tommymorgan.com",
	"phone": "5126960415"
}]
